<?xml version="1.0" standalone="no"?>
<!DOCTYPE svg PUBLIC "-//W3C//DTD SVG 20010904//EN"
 "http://www.w3.org/TR/2001/REC-SVG-20010904/DTD/svg10.dtd">
<svg version="1.0" xmlns="http://www.w3.org/2000/svg"
 width="753.000000pt" height="753.000000pt" viewBox="0 0 753.000000 753.000000"
 preserveAspectRatio="xMidYMid meet">
<metadata>
Created by potrace 1.14, written by Peter Selinger 2001-2017
</metadata>
<g transform="translate(0.000000,753.000000) scale(0.100000,-0.100000)"
fill="#000000" stroke="none">
<path d="M2986 7339 c-499 -58 -967 -343 -1241 -759 -34 -52 -275 -464 -536
-915 -260 -451 -637 -1106 -839 -1455 l-367 -635 1191 -3 c655 -1 1196 0 1202
2 6 2 230 385 499 850 l488 846 1475 2 1474 3 572 990 c314 545 584 1011 599
1038 l28 47 -2238 -1 c-1231 -1 -2269 -5 -2307 -10z"/>
<path d="M5116 3948 c-8 -13 -229 -394 -490 -848 l-476 -825 -1476 -5 -1476
-5 -598 -1035 -597 -1035 2211 -3 c1568 -2 2240 0 2311 8 506 56 961 325 1243
733 39 57 707 1208 1705 2940 l56 97 -1199 0 -1200 0 -14 -22z"/>
</g>
</svg>
